[
    {
        "bookSourceComment": "",
        "bookSourceGroup": "ARTS",
        "bookSourceName": "小草",
        "bookSourceType": 0,
        "bookSourceUrl": "https://cl.7801x.xyz",
        "bookUrlPattern": "",
        "customOrder": 0,
        "enabled": true,
        "enabledExplore": true,
        "exploreUrl": "首页::/thread0806.php?fid=20&page={{page}}\n現代奇幻::/thread0806.php?fid=20&type=1&page={{page}}\n古典武俠::/thread0806.php?fid=20&type=2&page={{page}}",
        "header": "",
        "lastUpdateTime": 0,
        "loginUrl": "",
        "ruleBookInfo": {
            "author": "",
            "coverUrl": "",
            "intro": "",
            "kind": "",
            "lastChapter": "",
            "name": "",
            "tocUrl": "baseUrl"
        },
        "ruleContent": {
            "content": "//div[@class='tpc_content do_not_catch']",
            "nextContentUrl": ""
        },
        "ruleExplore": {
            "author": "/td[3]/a/text()",
            "bookList": "//tbody[@id='tbody']/tr[@class='tr3 t_one tac']",
            "bookUrl": "/td[2]/h3/a/@href,{\"webView\":true}",
            "coverUrl": "",
            "kind": "/td[2]/text()",
            "lastChapter": "",
            "name": "/td[2]/h3/a/text()"
        },
        "ruleSearch": {
        },
        "ruleToc": {
            "chapterList": "//h4[@class='f16']",
            "chapterName": "text()",
            "chapterUrl": "",
            "nextTocUrl": ""
        },
        "searchUrl": "",
        "weight": 0
    },
    {
        "bookSourceGroup": "阅读3.0书源合集",
        "bookSourceName": "🔥云中书库",
        "bookSourceType": 0,
        "bookSourceUrl": "http://www.yunxs.com",
        "customOrder": 4,
        "enabled": true,
        "enabledExplore": true,
        "exploreUrl": "首页::/\n排行榜::/paihangbang.html\n小说书库::/shuku_17801_{{page}}.html\n玄幻·奇幻::/xuanhuan/shuku_1949_{{page}}.html\n仙侠·武侠::/xianxia/shuku_6666_{{page}}.html\n都市·言情::/dushi/shuku_6666_{{page}}.html\n穿越·历史::/chuanyue/shuku_6666_{{page}}.html\n科幻·灵异::/kehuan/shuku_6666_{{page}}.html\n同人·网游::/tongren/shuku_6666_{{page}}.html",
        "lastUpdateTime": 0,
        "ruleBookInfo": {
            "author": "@css:[property=og:novel:author]@content",
            "coverUrl": "@css:.pic img@src",
            "intro": "@css:.words>p:not([style])@html<js>result.replace(\"简介：\",\"\")</js>",
            "kind": "@css:[property=og:novel:category]@content",
            "lastChapter": "@css:[property=og:novel:latest_chapter_name]@content",
            "name": "@css:[property=og:novel:book_name]@content",
            "tocUrl": ""
        },
        "ruleContent": {
            "content": "@css:.box_box@textNodes##.*壹中文網.*|请记住本书首发域名.*"
        },
        "ruleExplore": {
            "author": "@css:.author,span>a@text",
            "bookList": "@css:.ul_m_list>li,li[onmouseover]:has(*)",
            "bookUrl": "@css:.t>a,dt>a@href",
            "coverUrl": "@css:img@src",
            "kind": "@css:.c>a,.words,.abover,strong>a@text",
            "lastChapter": "@css:.n>a:eq(1)@text",
            "name": "@css:.t,dt>a@text"
        },
        "ruleSearch": {
            "author": "@css:.state>a@text",
            "bookList": "@css:.ul_b_list>li",
            "bookUrl": "@css:h2>a@href",
            "coverUrl": "@css:img@src",
            "intro": "@css:p:not([class])@html<js>result.replace(\"简介：\",\"\")</js>",
            "kind": "@css:h2>span@text",
            "lastChapter": "@css:.arcurl@textNodes<js>result.replace(\"最后更新： \",\"\")</js>",
            "name": "@css:h2>a@text"
        },
        "ruleToc": {
            "chapterList": "+@css:.list_box a",
            "chapterName": "text",
            "chapterUrl": "href",
            "nextTocUrl": ""
        },
        "searchUrl": "http://www.yunxs.com/plus/search.php?kwtype=0&searchtype=搜索&q={{key}}",
        "weight": 0
    }
]